EESchema Schematic File Version 4
EELAYER 30 0
EELAYER END
$Descr A4 11693 8268
encoding utf-8
Sheet 1 1
Title ""
Date ""
Rev ""
Comp ""
Comment1 ""
Comment2 ""
Comment3 ""
Comment4 ""
$EndDescr
$Comp
L Timer:LM555 U1
U 1 1 5CE4BDB5
P 5500 3200
F 0 "U1" H 5500 3781 50  0000 C CNN
F 1 "LM555" H 5500 3690 50  0000 C CNN
F 2 "Package_DIP:DIP-8_W7.62mm" H 5500 3200 50  0001 C CNN
F 3 "http://www.ti.com/lit/ds/symlink/lm555.pdf" H 5500 3200 50  0001 C CNN
	1    5500 3200
	1    0    0    -1  
$EndComp
$Comp
L power:+9V #PWR05
U 1 1 5CE4C5AD
P 4800 2200
F 0 "#PWR05" H 4800 2050 50  0001 C CNN
F 1 "+9V" H 4815 2373 50  0000 C CNN
F 2 "" H 4800 2200 50  0001 C CNN
F 3 "" H 4800 2200 50  0001 C CNN
	1    4800 2200
	1    0    0    -1  
$EndComp
$Comp
L power:GND #PWR07
U 1 1 5CE4D1EB
P 5500 4250
F 0 "#PWR07" H 5500 4000 50  0001 C CNN
F 1 "GND" H 5505 4077 50  0000 C CNN
F 2 "" H 5500 4250 50  0001 C CNN
F 3 "" H 5500 4250 50  0001 C CNN
	1    5500 4250
	1    0    0    -1  
$EndComp
$Comp
L power:GND #PWR04
U 1 1 5CE4D524
P 4600 4300
F 0 "#PWR04" H 4600 4050 50  0001 C CNN
F 1 "GND" H 4605 4127 50  0000 C CNN
F 2 "" H 4600 4300 50  0001 C CNN
F 3 "" H 4600 4300 50  0001 C CNN
	1    4600 4300
	1    0    0    -1  
$EndComp
$Comp
L power:GND #PWR03
U 1 1 5CE4D6FF
P 4100 3800
F 0 "#PWR03" H 4100 3550 50  0001 C CNN
F 1 "GND" H 4105 3627 50  0000 C CNN
F 2 "" H 4100 3800 50  0001 C CNN
F 3 "" H 4100 3800 50  0001 C CNN
	1    4100 3800
	1    0    0    -1  
$EndComp
$Comp
L power:GND #PWR09
U 1 1 5CE4DAA9
P 8400 5350
F 0 "#PWR09" H 8400 5100 50  0001 C CNN
F 1 "GND" H 8405 5177 50  0000 C CNN
F 2 "" H 8400 5350 50  0001 C CNN
F 3 "" H 8400 5350 50  0001 C CNN
	1    8400 5350
	1    0    0    -1  
$EndComp
Wire Wire Line
	5500 3600 5500 4250
Wire Wire Line
	5000 3000 4600 3000
Wire Wire Line
	4600 3000 4600 3800
Wire Wire Line
	4600 3800 6350 3800
Wire Wire Line
	6350 3800 6350 3400
Wire Wire Line
	6350 3400 6000 3400
$Comp
L Device:C C2
U 1 1 5CE4EC61
P 4600 3950
F 0 "C2" H 4715 3996 50  0000 L CNN
F 1 "22n" H 4715 3905 50  0000 L CNN
F 2 "Capacitor_THT:C_Disc_D10.0mm_W2.5mm_P5.00mm" H 4638 3800 50  0001 C CNN
F 3 "~" H 4600 3950 50  0001 C CNN
	1    4600 3950
	1    0    0    -1  
$EndComp
Connection ~ 4600 3800
Wire Wire Line
	4600 4300 4600 4100
$Comp
L power:+9V #PWR06
U 1 1 5CE6B99F
P 5500 2200
F 0 "#PWR06" H 5500 2050 50  0001 C CNN
F 1 "+9V" H 5515 2373 50  0000 C CNN
F 2 "" H 5500 2200 50  0001 C CNN
F 3 "" H 5500 2200 50  0001 C CNN
	1    5500 2200
	1    0    0    -1  
$EndComp
Wire Wire Line
	5500 2800 5500 2200
Wire Wire Line
	4800 2200 4800 3400
Wire Wire Line
	4800 3400 5000 3400
$Comp
L Device:C C1
U 1 1 5CE6C180
P 4100 3400
F 0 "C1" H 4215 3446 50  0000 L CNN
F 1 "10n" H 4215 3355 50  0000 L CNN
F 2 "Capacitor_THT:C_Disc_D10.0mm_W2.5mm_P5.00mm" H 4138 3250 50  0001 C CNN
F 3 "~" H 4100 3400 50  0001 C CNN
	1    4100 3400
	1    0    0    -1  
$EndComp
Wire Wire Line
	5000 3200 4100 3200
Wire Wire Line
	4100 3200 4100 3250
Wire Wire Line
	4100 3550 4100 3800
$Comp
L Device:R_POT Tono1
U 1 1 5CE6D9C2
P 6900 3400
F 0 "Tono1" V 6693 3400 50  0000 C CNN
F 1 "100k" V 6784 3400 50  0000 C CNN
F 2 "Potentiometer_THT:Potentiometer_Alps_RK163_Single_Horizontal" H 6900 3400 50  0001 C CNN
F 3 "~" H 6900 3400 50  0001 C CNN
	1    6900 3400
	0    1    1    0   
$EndComp
Wire Wire Line
	6750 3400 6350 3400
Connection ~ 6350 3400
Wire Wire Line
	6900 3550 7100 3550
Wire Wire Line
	7100 3550 7100 3400
Wire Wire Line
	7100 3400 7050 3400
Wire Wire Line
	7100 3400 7100 3200
Wire Wire Line
	7100 3200 6000 3200
Connection ~ 7100 3400
$Comp
L power:+9V #PWR08
U 1 1 5CE6F4C9
P 7100 2550
F 0 "#PWR08" H 7100 2400 50  0001 C CNN
F 1 "+9V" H 7115 2723 50  0000 C CNN
F 2 "" H 7100 2550 50  0001 C CNN
F 3 "" H 7100 2550 50  0001 C CNN
	1    7100 2550
	1    0    0    -1  
$EndComp
$Comp
L Device:R R1
U 1 1 5CE6FABE
P 7100 2700
F 0 "R1" H 7170 2746 50  0000 L CNN
F 1 "10K" H 7170 2655 50  0000 L CNN
F 2 "Resistor_THT:R_Axial_DIN0207_L6.3mm_D2.5mm_P10.16mm_Horizontal" V 7030 2700 50  0001 C CNN
F 3 "~" H 7100 2700 50  0001 C CNN
	1    7100 2700
	1    0    0    -1  
$EndComp
Wire Wire Line
	7100 2850 7100 3200
Connection ~ 7100 3200
$Comp
L Transistor_BJT:BC547 Q1
U 1 1 5CE712A0
P 8350 3000
F 0 "Q1" H 8541 3046 50  0000 L CNN
F 1 "BC547" H 8541 2955 50  0000 L CNN
F 2 "Package_TO_SOT_THT:TO-92_Inline_Wide" H 8550 2925 50  0001 L CIN
F 3 "http://www.fairchildsemi.com/ds/BC/BC547.pdf" H 8350 3000 50  0001 L CNN
	1    8350 3000
	1    0    0    -1  
$EndComp
$Comp
L power:GND #PWR011
U 1 1 5CE74733
P 8450 3450
F 0 "#PWR011" H 8450 3200 50  0001 C CNN
F 1 "GND" H 8455 3277 50  0000 C CNN
F 2 "" H 8450 3450 50  0001 C CNN
F 3 "" H 8450 3450 50  0001 C CNN
	1    8450 3450
	1    0    0    -1  
$EndComp
$Comp
L Device:R R3
U 1 1 5CE74E98
P 8450 2600
F 0 "R3" H 8520 2646 50  0000 L CNN
F 1 "R_LED" H 8520 2555 50  0000 L CNN
F 2 "Resistor_THT:R_Axial_DIN0207_L6.3mm_D2.5mm_P10.16mm_Horizontal" V 8380 2600 50  0001 C CNN
F 3 "~" H 8450 2600 50  0001 C CNN
	1    8450 2600
	1    0    0    -1  
$EndComp
Wire Wire Line
	8450 2750 8450 2800
Wire Wire Line
	8450 3200 8450 3450
$Comp
L power:+9V #PWR010
U 1 1 5CE76103
P 8450 2050
F 0 "#PWR010" H 8450 1900 50  0001 C CNN
F 1 "+9V" H 8465 2223 50  0000 C CNN
F 2 "" H 8450 2050 50  0001 C CNN
F 3 "" H 8450 2050 50  0001 C CNN
	1    8450 2050
	1    0    0    -1  
$EndComp
$Comp
L Device:CP C3
U 1 1 5CE785D4
P 7350 3300
F 0 "C3" H 7232 3254 50  0000 R CNN
F 1 "22uf" H 7232 3345 50  0000 R CNN
F 2 "Capacitor_THT:CP_Radial_D6.3mm_P2.50mm" H 7388 3150 50  0001 C CNN
F 3 "~" H 7350 3300 50  0001 C CNN
	1    7350 3300
	1    0    0    -1  
$EndComp
Wire Wire Line
	7350 3150 7350 3000
Connection ~ 7350 3000
Wire Wire Line
	7350 3000 6000 3000
$Comp
L Device:R_POT Vol1
U 1 1 5CE79ABF
P 7350 4200
F 0 "Vol1" H 7281 4246 50  0000 R CNN
F 1 "5k" H 7281 4155 50  0000 R CNN
F 2 "Potentiometer_THT:Potentiometer_Alps_RK163_Single_Horizontal" H 7350 4200 50  0001 C CNN
F 3 "~" H 7350 4200 50  0001 C CNN
	1    7350 4200
	1    0    0    1   
$EndComp
$Comp
L power:+9V #PWR02
U 1 1 5CE8EE79
P 4150 2000
F 0 "#PWR02" H 4150 1850 50  0001 C CNN
F 1 "+9V" H 4165 2173 50  0000 C CNN
F 2 "" H 4150 2000 50  0001 C CNN
F 3 "" H 4150 2000 50  0001 C CNN
	1    4150 2000
	1    0    0    -1  
$EndComp
$Comp
L Device:LED D1
U 1 1 5CEAA1EC
P 8450 2250
F 0 "D1" V 8489 2133 50  0000 R CNN
F 1 "LED" V 8398 2133 50  0000 R CNN
F 2 "LED_THT:LED_D3.0mm" H 8450 2250 50  0001 C CNN
F 3 "~" H 8450 2250 50  0001 C CNN
	1    8450 2250
	0    -1   -1   0   
$EndComp
Wire Wire Line
	8450 2400 8450 2450
Wire Wire Line
	8450 2100 8450 2050
$Comp
L Device:R R2
U 1 1 5CEDACB2
P 7800 3000
F 0 "R2" V 7593 3000 50  0000 C CNN
F 1 "1K" V 7684 3000 50  0000 C CNN
F 2 "Resistor_THT:R_Axial_DIN0207_L6.3mm_D2.5mm_P10.16mm_Horizontal" V 7730 3000 50  0001 C CNN
F 3 "~" H 7800 3000 50  0001 C CNN
	1    7800 3000
	0    1    1    0   
$EndComp
Wire Wire Line
	7350 3000 7650 3000
Wire Wire Line
	7950 3000 8150 3000
$Comp
L Connector:Conn_01x02_Male J2
U 1 1 5CE880D5
P 8200 4900
F 0 "J2" H 8308 5081 50  0000 C CNN
F 1 "Bocina" H 8308 4990 50  0000 C CNN
F 2 "TerminalBlock_MetzConnect:TerminalBlock_MetzConnect_Type094_RT03502HBLU_1x02_P5.00mm_Horizontal" H 8200 4900 50  0001 C CNN
F 3 "~" H 8200 4900 50  0001 C CNN
	1    8200 4900
	1    0    0    -1  
$EndComp
$Comp
L power:PWR_FLAG #FLG0102
U 1 1 5CEEFE73
P 4550 1450
F 0 "#FLG0102" H 4550 1525 50  0001 C CNN
F 1 "PWR_FLAG" V 4450 1400 50  0000 C CNN
F 2 "" H 4550 1450 50  0001 C CNN
F 3 "~" H 4550 1450 50  0001 C CNN
	1    4550 1450
	1    0    0    -1  
$EndComp
$Comp
L power:PWR_FLAG #FLG0103
U 1 1 5CEF00A6
P 4750 1450
F 0 "#FLG0103" H 4750 1525 50  0001 C CNN
F 1 "PWR_FLAG" V 4650 1400 50  0000 C CNN
F 2 "" H 4750 1450 50  0001 C CNN
F 3 "~" H 4750 1450 50  0001 C CNN
	1    4750 1450
	1    0    0    -1  
$EndComp
$Comp
L power:+9V #PWR0102
U 1 1 5CEF05BE
P 4550 1600
F 0 "#PWR0102" H 4550 1450 50  0001 C CNN
F 1 "+9V" H 4565 1773 50  0000 C CNN
F 2 "" H 4550 1600 50  0001 C CNN
F 3 "" H 4550 1600 50  0001 C CNN
	1    4550 1600
	-1   0    0    1   
$EndComp
$Comp
L power:GND #PWR0103
U 1 1 5CEF1445
P 4750 1600
F 0 "#PWR0103" H 4750 1350 50  0001 C CNN
F 1 "GND" H 4755 1427 50  0000 C CNN
F 2 "" H 4750 1600 50  0001 C CNN
F 3 "" H 4750 1600 50  0001 C CNN
	1    4750 1600
	1    0    0    -1  
$EndComp
Wire Wire Line
	4750 1600 4750 1450
Wire Wire Line
	4550 1450 4550 1600
$Comp
L power:GND #PWR012
U 1 1 5CF0B8EB
P 3600 2400
F 0 "#PWR012" H 3600 2150 50  0001 C CNN
F 1 "GND" H 3605 2227 50  0000 C CNN
F 2 "" H 3600 2400 50  0001 C CNN
F 3 "" H 3600 2400 50  0001 C CNN
	1    3600 2400
	1    0    0    -1  
$EndComp
$Comp
L Connector:Conn_01x02_Male J4
U 1 1 5E43977F
P 4150 2400
F 0 "J4" H 4258 2581 50  0000 C CNN
F 1 "SW" H 4258 2490 50  0000 C CNN
F 2 "TerminalBlock_MetzConnect:TerminalBlock_MetzConnect_Type094_RT03502HBLU_1x02_P5.00mm_Horizontal" H 4150 2400 50  0001 C CNN
F 3 "~" H 4150 2400 50  0001 C CNN
	1    4150 2400
	0    1    -1   0   
$EndComp
Wire Wire Line
	4150 2200 4150 2000
Wire Wire Line
	4050 2200 4050 2150
$Comp
L Transistor_BJT:BC547 Q2
U 1 1 5E620D94
P 7900 4200
F 0 "Q2" H 8091 4246 50  0000 L CNN
F 1 "BC547" H 8091 4155 50  0000 L CNN
F 2 "Package_TO_SOT_THT:TO-92_Inline_Wide" H 8100 4125 50  0001 L CIN
F 3 "http://www.fairchildsemi.com/ds/BC/BC547.pdf" H 7900 4200 50  0001 L CNN
	1    7900 4200
	1    0    0    -1  
$EndComp
$Comp
L Connector:Conn_01x02_Male J3
U 1 1 5CEFD1A8
P 7150 3700
F 0 "J3" H 7258 3881 50  0000 C CNN
F 1 "Key" H 7258 3790 50  0000 C CNN
F 2 "TerminalBlock_MetzConnect:TerminalBlock_MetzConnect_Type094_RT03502HBLU_1x02_P5.00mm_Horizontal" H 7150 3700 50  0001 C CNN
F 3 "~" H 7150 3700 50  0001 C CNN
	1    7150 3700
	1    0    0    -1  
$EndComp
Wire Wire Line
	7350 4050 7350 3800
Wire Wire Line
	7700 4200 7500 4200
$Comp
L Transistor_BJT:TIP41 Q3
U 1 1 5E6343AE
P 8300 4550
F 0 "Q3" H 8491 4596 50  0000 L CNN
F 1 "TIP41" H 8491 4505 50  0000 L CNN
F 2 "Package_TO_SOT_THT:TO-220-3_Vertical" H 8550 4475 50  0001 L CIN
F 3 "https://www.centralsemi.com/get_document.php?cmp=1&mergetype=pd&mergepath=pd&pdf_id=tip41.PDF" H 8300 4550 50  0001 L CNN
	1    8300 4550
	1    0    0    -1  
$EndComp
Wire Wire Line
	8100 4550 8000 4550
Wire Wire Line
	8000 4550 8000 4400
Wire Wire Line
	8400 4350 8400 3900
Wire Wire Line
	8400 3900 8200 3900
Wire Wire Line
	8000 3900 8000 4000
$Comp
L power:+9V #PWR013
U 1 1 5E638CC2
P 8200 3900
F 0 "#PWR013" H 8200 3750 50  0001 C CNN
F 1 "+9V" H 8215 4073 50  0000 C CNN
F 2 "" H 8200 3900 50  0001 C CNN
F 3 "" H 8200 3900 50  0001 C CNN
	1    8200 3900
	1    0    0    -1  
$EndComp
Connection ~ 8200 3900
Wire Wire Line
	8200 3900 8000 3900
Wire Wire Line
	8400 4900 8400 4750
Wire Wire Line
	8400 5000 8400 5350
$Comp
L power:GND #PWR01
U 1 1 5E64275D
P 7350 4600
F 0 "#PWR01" H 7350 4350 50  0001 C CNN
F 1 "GND" H 7355 4427 50  0000 C CNN
F 2 "" H 7350 4600 50  0001 C CNN
F 3 "" H 7350 4600 50  0001 C CNN
	1    7350 4600
	1    0    0    -1  
$EndComp
Wire Wire Line
	7350 4600 7350 4350
Wire Wire Line
	7350 3450 7350 3700
Wire Wire Line
	3600 2350 3600 2400
Wire Wire Line
	4050 2150 3600 2150
$Comp
L Connector:Conn_01x02_Male J1
U 1 1 5CE8D1A1
P 3400 2250
F 0 "J1" H 3508 2431 50  0000 C CNN
F 1 "9V" H 3508 2340 50  0000 C CNN
F 2 "TerminalBlock_MetzConnect:TerminalBlock_MetzConnect_Type094_RT03502HBLU_1x02_P5.00mm_Horizontal" H 3400 2250 50  0001 C CNN
F 3 "~" H 3400 2250 50  0001 C CNN
	1    3400 2250
	1    0    0    -1  
$EndComp
Wire Wire Line
	3600 2250 3600 2150
$EndSCHEMATC
